{
    "name": "Sample",

    "nodeFolder": "nodes",
    "missionFolder": "missions",


    "min_players": 2,
    "max_players": 2,
    "characters": [
        null,
        {
            "name": "Moebius",

            "home_node": "moebius-home"
        },
        {
            "name": "Ares",

            "home_node": "ares-home"
        }
    ]
}